{
  "photos": {
    "page": 1,
    "pages": 1432,
    "perpage": 100,
    "total": "143135",
    "photo": [
      {
        "id": "44770074365",
        "owner": "159123386@N03",
        "secret": "fa96de6694",
        "server": "4808",
        "farm": 5,
        "title": "",
        "ispublic": 1,
        "isfriend": 0,
        "isfamily": 0
      },
      {
        "id": "44959467904",
        "owner": "44589833@N06",
        "secret": "43ee955f8e",
        "server": "4892",
        "farm": 5,
        "title": "kylepmulligan",
        "ispublic": 1,
        "isfriend": 0,
        "isfamily": 0
      },
      {
        "id": "44959418094",
        "owner": "162835534@N05",
        "secret": "a44a8b8054",
        "server": "1959",
        "farm": 2,
        "title": "0006",
        "ispublic": 1,
        "isfriend": 0,
        "isfamily": 0
      },
      {
        "id": "43866326330",
        "owner": "162835534@N05",
        "secret": "2e4aabff80",
        "server": "1936",
        "farm": 2,
        "title": "0007",
        "ispublic": 1,
        "isfriend": 0,
        "isfamily": 0
      },
      {
        "id": "44769987475",
        "owner": "162835534@N05",
        "secret": "01773d2ce2",
        "server": "1931",
        "farm": 2,
        "title": "0053",
        "ispublic": 1,
        "isfriend": 0,
        "isfamily": 0
      },
      {
        "id": "45684135791",
        "owner": "44589833@N06",
        "secret": "2d491101ce",
        "server": "4912",
        "farm": 5,
        "title": "kylepmulligan",
        "ispublic": 1,
        "isfriend": 0,
        "isfamily": 0
      },
      {
        "id": "44959323994",
        "owner": "144514390@N06",
        "secret": "9c1a689bb8",
        "server": "4830",
        "farm": 5,
        "title": "f23481129",
        "ispublic": 1,
        "isfriend": 0,
        "isfamily": 0
      },
      {
        "id": "31811706608",
        "owner": "135162570@N03",
        "secret": "46da129b21",
        "server": "4882",
        "farm": 5,
        "title": "Charles & Lotus - 6 month Turkish Angora",
        "ispublic": 1,
        "isfriend": 0,
        "isfamily": 0
      },
      {
        "id": "43866138230",
        "owner": "165451718@N03",
        "secret": "7a60bc6eb5",
        "server": "1925",
        "farm": 2,
        "title": "1472830686888.jpg",
        "ispublic": 1,
        "isfriend": 0,
        "isfamily": 0
      },
      {
        "id": "44769794935",
        "owner": "39737363@N00",
        "secret": "abdfecdc4d",
        "server": "4883",
        "farm": 5,
        "title": "IMG_4781",
        "ispublic": 1,
        "isfriend": 0,
        "isfamily": 0
      },
      {
        "id": "43866031330",
        "owner": "146859726@N05",
        "secret": "76d39f5e0b",
        "server": "4869",
        "farm": 5,
        "title": "IMGP1227",
        "ispublic": 1,
        "isfriend": 0,
        "isfamily": 0
      },
      {
        "id": "31811253018",
        "owner": "97210576@N05",
        "secret": "d1253a1bd5",
        "server": "4855",
        "farm": 5,
        "title": "DSCF9787",
        "ispublic": 1,
        "isfriend": 0,
        "isfamily": 0
      },
      {
        "id": "44769388905",
        "owner": "97210576@N05",
        "secret": "76106948c9",
        "server": "4829",
        "farm": 5,
        "title": "DSCF9811",
        "ispublic": 1,
        "isfriend": 0,
        "isfamily": 0
      },
      {
        "id": "43865617930",
        "owner": "97210576@N05",
        "secret": "e3803c1a51",
        "server": "1972",
        "farm": 2,
        "title": "DSCF9864",
        "ispublic": 1,
        "isfriend": 0,
        "isfamily": 0
      },
      {
        "id": "43865595690",
        "owner": "97210576@N05",
        "secret": "3afd189888",
        "server": "4889",
        "farm": 5,
        "title": "DSCF9898",
        "ispublic": 1,
        "isfriend": 0,
        "isfamily": 0
      },
      {
        "id": "31811218248",
        "owner": "97210576@N05",
        "secret": "4d31308ea3",
        "server": "1949",
        "farm": 2,
        "title": "DSCF9899",
        "ispublic": 1,
        "isfriend": 0,
        "isfamily": 0
      },
      {
        "id": "31807369368",
        "owner": "137212676@N02",
        "secret": "d37ed4077e",
        "server": "1933",
        "farm": 2,
        "title": "Won't you sing with me?",
        "ispublic": 1,
        "isfriend": 0,
        "isfamily": 0
      },
      {
        "id": "43865582840",
        "owner": "19872565@N00",
        "secret": "b49996b0e4",
        "server": "1978",
        "farm": 2,
        "title": "20170828_3888c",
        "ispublic": 1,
        "isfriend": 0,
        "isfamily": 0
      },
      {
        "id": "44958852354",
        "owner": "65072883@N04",
        "secret": "2175c4f1f5",
        "server": "4825",
        "farm": 5,
        "title": "2018-11-02_06-07-24",
        "ispublic": 1,
        "isfriend": 0,
        "isfamily": 0
      },
      {
        "id": "45683503161",
        "owner": "159805598@N03",
        "secret": "8a9abb7512",
        "server": "4877",
        "farm": 5,
        "title": "IMG_1263",
        "ispublic": 1,
        "isfriend": 0,
        "isfamily": 0
      },
      {
        "id": "31811101588",
        "owner": "135081718@N04",
        "secret": "385e486dae",
        "server": "4896",
        "farm": 5,
        "title": "bw1x101",
        "ispublic": 1,
        "isfriend": 0,
        "isfamily": 0
      },
      {
        "id": "45683399731",
        "owner": "125039500@N03",
        "secret": "1922fb0d21",
        "server": "4811",
        "farm": 5,
        "title": "Spice 6.7oz 5 days old (21)",
        "ispublic": 1,
        "isfriend": 0,
        "isfamily": 0
      },
      {
        "id": "43865349210",
        "owner": "47863301@N00",
        "secret": "98997d9180",
        "server": "1930",
        "farm": 2,
        "title": "Listener Nick's cat Rosie Purrez",
        "ispublic": 1,
        "isfriend": 0,
        "isfamily": 0
      },
      {
        "id": "45683309651",
        "owner": "125039500@N03",
        "secret": "b87f34f894",
        "server": "4846",
        "farm": 5,
        "title": "Chili Pepper 7.3oz 5 days old (6)",
        "ispublic": 1,
        "isfriend": 0,
        "isfamily": 0
      },
      {
        "id": "44958597144",
        "owner": "125039500@N03",
        "secret": "471a1ec53e",
        "server": "4899",
        "farm": 5,
        "title": "Chili Pepper 7.3oz 5 days old (8)",
        "ispublic": 1,
        "isfriend": 0,
        "isfamily": 0
      },
      {
        "id": "44958596494",
        "owner": "125039500@N03",
        "secret": "8c7b37ae55",
        "server": "4856",
        "farm": 5,
        "title": "Chili Pepper 7.3oz 5 days old (11)",
        "ispublic": 1,
        "isfriend": 0,
        "isfamily": 0
      },
      {
        "id": "30742676887",
        "owner": "125039500@N03",
        "secret": "808be60f6f",
        "server": "4862",
        "farm": 5,
        "title": "Chili Pepper 7.3oz 5 days old (18)",
        "ispublic": 1,
        "isfriend": 0,
        "isfamily": 0
      },
      {
        "id": "31810875218",
        "owner": "7199502@N05",
        "secret": "62da6bdc81",
        "server": "4863",
        "farm": 5,
        "title": "",
        "ispublic": 1,
        "isfriend": 0,
        "isfamily": 0
      },
      {
        "id": "31810794078",
        "owner": "157658149@N03",
        "secret": "79aae4c5dd",
        "server": "1942",
        "farm": 2,
        "title": "normy",
        "ispublic": 1,
        "isfriend": 0,
        "isfamily": 0
      },
      {
        "id": "31810788058",
        "owner": "157658149@N03",
        "secret": "c51470f38c",
        "server": "1965",
        "farm": 2,
        "title": "normy",
        "ispublic": 1,
        "isfriend": 0,
        "isfamily": 0
      },
      {
        "id": "31810778838",
        "owner": "157658149@N03",
        "secret": "d6dec9dd3c",
        "server": "1972",
        "farm": 2,
        "title": "normy",
        "ispublic": 1,
        "isfriend": 0,
        "isfamily": 0
      },
      {
        "id": "44768963335",
        "owner": "29413803@N00",
        "secret": "a7413783cc",
        "server": "4838",
        "farm": 5,
        "title": "kitten",
        "ispublic": 1,
        "isfriend": 0,
        "isfamily": 0
      },
      {
        "id": "44768950845",
        "owner": "112921614@N04",
        "secret": "9aa5703a0c",
        "server": "1931",
        "farm": 2,
        "title": "Francisca . #vsco #vscocam #vscophile #vscobrasil #cat #blackcat #pet #gatos #iphonexsmax #iphoneonly #shotoniphone #shotoniphonexsmax #portraitmode",
        "ispublic": 1,
        "isfriend": 0,
        "isfamily": 0
      },
      {
        "id": "30742508757",
        "owner": "138462910@N08",
        "secret": "2e731aa209",
        "server": "4851",
        "farm": 5,
        "title": "TGIF from Magnolia! Magnolia is a 2 year old, female, Russian Blue mix Domestic Short Hair who was found in Teton Valley in a field with her kittens. She has been in the shelter system for a full year and it is time for her to find her forever home! Magno",
        "ispublic": 1,
        "isfriend": 0,
        "isfamily": 0
      },
      {
        "id": "44958120054",
        "owner": "125039500@N03",
        "secret": "267aa6065d",
        "server": "1921",
        "farm": 2,
        "title": "Emma 4.8oz 3 days old (41)",
        "ispublic": 1,
        "isfriend": 0,
        "isfamily": 0
      },
      {
        "id": "43864858000",
        "owner": "125039500@N03",
        "secret": "1644227f72",
        "server": "1961",
        "farm": 2,
        "title": "Emma 4.8oz 3 days old (43)",
        "ispublic": 1,
        "isfriend": 0,
        "isfamily": 0
      },
      {
        "id": "44958054184",
        "owner": "125039500@N03",
        "secret": "73aef9afd5",
        "server": "4861",
        "farm": 5,
        "title": "Sugar 6.1oz 5 days old (7)",
        "ispublic": 1,
        "isfriend": 0,
        "isfamily": 0
      },
      {
        "id": "44957722564",
        "owner": "159257328@N08",
        "secret": "1f347c28bd",
        "server": "4854",
        "farm": 5,
        "title": "Yes, almost, yes... just a little",
        "ispublic": 1,
        "isfriend": 0,
        "isfamily": 0
      },
      {
        "id": "44768154375",
        "owner": "159257328@N08",
        "secret": "1f347c28bd",
        "server": "1935",
        "farm": 2,
        "title": "Got your kitten!",
        "ispublic": 1,
        "isfriend": 0,
        "isfamily": 0
      },
      {
        "id": "44957721974",
        "owner": "159257328@N08",
        "secret": "52b44a353d",
        "server": "4811",
        "farm": 5,
        "title": "Here! Good Boy!",
        "ispublic": 1,
        "isfriend": 0,
        "isfamily": 0
      },
      {
        "id": "44768154105",
        "owner": "159257328@N08",
        "secret": "c7c6e70047",
        "server": "4839",
        "farm": 5,
        "title": "Here's Johnny",
        "ispublic": 1,
        "isfriend": 0,
        "isfamily": 0
      },
      {
        "id": "44957721184",
        "owner": "159257328@N08",
        "secret": "ec94f2e48c",
        "server": "1948",
        "farm": 2,
        "title": "You left the door open, Brrrr",
        "ispublic": 1,
        "isfriend": 0,
        "isfamily": 0
      },
      {
        "id": "44957720314",
        "owner": "159257328@N08",
        "secret": "2bafb34a47",
        "server": "4863",
        "farm": 5,
        "title": "Everything is pretty in pink",
        "ispublic": 1,
        "isfriend": 0,
        "isfamily": 0
      },
      {
        "id": "44768153865",
        "owner": "159257328@N08",
        "secret": "daa559cefe",
        "server": "1907",
        "farm": 2,
        "title": "Friday - Pizza @the office",
        "ispublic": 1,
        "isfriend": 0,
        "isfamily": 0
      },
      {
        "id": "45632113062",
        "owner": "92329801@N08",
        "secret": "af4d8449d2",
        "server": "4877",
        "farm": 5,
        "title": "Thelma",
        "ispublic": 1,
        "isfriend": 0,
        "isfamily": 0
      },
      {
        "id": "44957839744",
        "owner": "127164761@N08",
        "secret": "08624584d3",
        "server": "4874",
        "farm": 5,
        "title": "DSCF0142",
        "ispublic": 1,
        "isfriend": 0,
        "isfamily": 0
      },
      {
        "id": "31810061978",
        "owner": "8996753@N06",
        "secret": "9afb39819e",
        "server": "4867",
        "farm": 5,
        "title": "MiNe-M_100-6085U",
        "ispublic": 1,
        "isfriend": 0,
        "isfamily": 0
      },
      {
        "id": "30741823497",
        "owner": "8996753@N06",
        "secret": "d02cb46824",
        "server": "4803",
        "farm": 5,
        "title": "MiNe-M_100-6104U",
        "ispublic": 1,
        "isfriend": 0,
        "isfamily": 0
      },
      {
        "id": "45631962742",
        "owner": "131195149@N06",
        "secret": "dc24bde22a",
        "server": "4878",
        "farm": 5,
        "title": "",
        "ispublic": 1,
        "isfriend": 0,
        "isfamily": 0
      },
      {
        "id": "45631924522",
        "owner": "30439585@N05",
        "secret": "4c059a3843",
        "server": "4915",
        "farm": 5,
        "title": "Someone stole the ocean and put it in this cat's eyes",
        "ispublic": 1,
        "isfriend": 0,
        "isfamily": 0
      },
      {
        "id": "44957623904",
        "owner": "63345339@N08",
        "secret": "1e67e7435c",
        "server": "4845",
        "farm": 5,
        "title": "",
        "ispublic": 1,
        "isfriend": 0,
        "isfamily": 0
      },
      {
        "id": "45682263531",
        "owner": "131195149@N06",
        "secret": "08afde3b04",
        "server": "1911",
        "farm": 2,
        "title": "",
        "ispublic": 1,
        "isfriend": 0,
        "isfamily": 0
      },
      {
        "id": "43864320010",
        "owner": "131195149@N06",
        "secret": "2872d8e082",
        "server": "4863",
        "farm": 5,
        "title": "",
        "ispublic": 1,
        "isfriend": 0,
        "isfamily": 0
      },
      {
        "id": "44767897235",
        "owner": "57256462@N07",
        "secret": "8242730631",
        "server": "4872",
        "farm": 5,
        "title": "Exploring the word",
        "ispublic": 1,
        "isfriend": 0,
        "isfamily": 0
      },
      {
        "id": "30741649177",
        "owner": "57256462@N07",
        "secret": "1260f42c11",
        "server": "1906",
        "farm": 2,
        "title": "Serval kitten",
        "ispublic": 1,
        "isfriend": 0,
        "isfamily": 0
      },
      {
        "id": "44767895785",
        "owner": "57256462@N07",
        "secret": "03ef14bb88",
        "server": "1966",
        "farm": 2,
        "title": "Got you mom",
        "ispublic": 1,
        "isfriend": 0,
        "isfamily": 0
      },
      {
        "id": "45682011981",
        "owner": "156382434@N03",
        "secret": "314b8ecf0c",
        "server": "4870",
        "farm": 5,
        "title": "_DSC9015 \u62f7\u8c9d",
        "ispublic": 1,
        "isfriend": 0,
        "isfamily": 0
      },
      {
        "id": "44955778574",
        "owner": "24562578@N05",
        "secret": "c4286b9e0d",
        "server": "4903",
        "farm": 5,
        "title": "Arreivis & KittyPoo",
        "ispublic": 1,
        "isfriend": 0,
        "isfamily": 0
      },
      {
        "id": "31809910318",
        "owner": "51035644485@N01",
        "secret": "12f0397e46",
        "server": "1916",
        "farm": 2,
        "title": "2018-11-04-21",
        "ispublic": 1,
        "isfriend": 0,
        "isfamily": 0
      },
      {
        "id": "30741695247",
        "owner": "114972052@N04",
        "secret": "7f4126dd4d",
        "server": "1904",
        "farm": 2,
        "title": "",
        "ispublic": 1,
        "isfriend": 0,
        "isfamily": 0
      },
      {
        "id": "44767927005",
        "owner": "125039500@N03",
        "secret": "8f4529953c",
        "server": "4911",
        "farm": 5,
        "title": "Eli 4.7oz 3 days old (28)",
        "ispublic": 1,
        "isfriend": 0,
        "isfamily": 0
      },
      {
        "id": "44767916205",
        "owner": "114972052@N04",
        "secret": "a49697580e",
        "server": "4804",
        "farm": 5,
        "title": "",
        "ispublic": 1,
        "isfriend": 0,
        "isfamily": 0
      },
      {
        "id": "30741672667",
        "owner": "161772841@N05",
        "secret": "226c3bc98d",
        "server": "4893",
        "farm": 5,
        "title": "My cat. Her name is Temari. 1",
        "ispublic": 1,
        "isfriend": 0,
        "isfamily": 0
      },
      {
        "id": "31809846638",
        "owner": "114972052@N04",
        "secret": "132d045f3b",
        "server": "4832",
        "farm": 5,
        "title": "",
        "ispublic": 1,
        "isfriend": 0,
        "isfamily": 0
      },
      {
        "id": "31809790868",
        "owner": "134738530@N07",
        "secret": "637704dbe3",
        "server": "4911",
        "farm": 5,
        "title": "Colston - 5 month old neutered male",
        "ispublic": 1,
        "isfriend": 0,
        "isfamily": 0
      },
      {
        "id": "45631669972",
        "owner": "141434526@N04",
        "secret": "d5ae830388",
        "server": "1968",
        "farm": 2,
        "title": "Screenshot_20180908-143244_1c2d7803eb59b9e1966bf1d4b9bd19e4",
        "ispublic": 1,
        "isfriend": 0,
        "isfamily": 0
      },
      {
        "id": "43864050590",
        "owner": "151978315@N04",
        "secret": "50e9df42c9",
        "server": "1942",
        "farm": 2,
        "title": "\ud83d\udc7f",
        "ispublic": 1,
        "isfriend": 0,
        "isfamily": 0
      },
      {
        "id": "45681987111",
        "owner": "125039500@N03",
        "secret": "3a4200138a",
        "server": "4885",
        "farm": 5,
        "title": "Ella 4.3oz 3 days old (9)",
        "ispublic": 1,
        "isfriend": 0,
        "isfamily": 0
      },
      {
        "id": "45681977611",
        "owner": "125039500@N03",
        "secret": "2da74af179",
        "server": "1951",
        "farm": 2,
        "title": "Ella 4.3oz 3 days old (14)",
        "ispublic": 1,
        "isfriend": 0,
        "isfamily": 0
      },
      {
        "id": "45631328602",
        "owner": "147564092@N02",
        "secret": "653c022bdc",
        "server": "4912",
        "farm": 5,
        "title": "#CatMeows: @catsu : @yoo_cheese https:\/\/t.co\/yTTzdVIS31 (via Twitter http:\/\/twitter.com\/catsu\/status\/1050157395249438722) https:\/\/ift.tt\/2Rwiozx",
        "ispublic": 1,
        "isfriend": 0,
        "isfamily": 0
      },
      {
        "id": "44957015654",
        "owner": "8749778@N06",
        "secret": "8d34ab2892",
        "server": "1924",
        "farm": 2,
        "title": "Snow Leopard Kitten Looking Up Cliff",
        "ispublic": 1,
        "isfriend": 0,
        "isfamily": 0
      },
      {
        "id": "44957009624",
        "owner": "8749778@N06",
        "secret": "73657c31d9",
        "server": "1954",
        "farm": 2,
        "title": "Snow Leopard Kitten Climbing on Branch",
        "ispublic": 1,
        "isfriend": 0,
        "isfamily": 0
      },
      {
        "id": "43863701930",
        "owner": "8749778@N06",
        "secret": "5111015df7",
        "server": "4862",
        "farm": 5,
        "title": "Snow Leopard Kitten Relaxing after Climbing",
        "ispublic": 1,
        "isfriend": 0,
        "isfamily": 0
      },
      {
        "id": "44767360515",
        "owner": "8749778@N06",
        "secret": "f1f3809c80",
        "server": "4861",
        "farm": 5,
        "title": "Snow Leopard Kitten in Leaves",
        "ispublic": 1,
        "isfriend": 0,
        "isfamily": 0
      },
      {
        "id": "45631145012",
        "owner": "8749778@N06",
        "secret": "0371c5130f",
        "server": "4858",
        "farm": 5,
        "title": "Snow Leopard Kitten Ears Up",
        "ispublic": 1,
        "isfriend": 0,
        "isfamily": 0
      },
      {
        "id": "43863675640",
        "owner": "8749778@N06",
        "secret": "b0792281d8",
        "server": "1908",
        "farm": 2,
        "title": "Snow Leopard Kitten Peeking From Rock",
        "ispublic": 1,
        "isfriend": 0,
        "isfamily": 0
      },
      {
        "id": "45631129122",
        "owner": "8749778@N06",
        "secret": "95baeb6746",
        "server": "1950",
        "farm": 2,
        "title": "Snow Leopard Kitten with Mom",
        "ispublic": 1,
        "isfriend": 0,
        "isfamily": 0
      },
      {
        "id": "44956921394",
        "owner": "8749778@N06",
        "secret": "7f6ec94d3a",
        "server": "4825",
        "farm": 5,
        "title": "Snow Leopard Kitten Watching Sister Jump",
        "ispublic": 1,
        "isfriend": 0,
        "isfamily": 0
      },
      {
        "id": "45681609931",
        "owner": "153246983@N08",
        "secret": "4b8fb1f427",
        "server": "4860",
        "farm": 5,
        "title": "Popogs",
        "ispublic": 1,
        "isfriend": 0,
        "isfamily": 0
      },
      {
        "id": "45631034832",
        "owner": "165991487@N06",
        "secret": "8836743e4c",
        "server": "4876",
        "farm": 5,
        "title": "",
        "ispublic": 1,
        "isfriend": 0,
        "isfamily": 0
      },
      {
        "id": "31809178178",
        "owner": "143143089@N06",
        "secret": "7b29cb594a",
        "server": "1917",
        "farm": 2,
        "title": "IMG_0013 2",
        "ispublic": 1,
        "isfriend": 0,
        "isfamily": 0
      },
      {
        "id": "44767179005",
        "owner": "143143089@N06",
        "secret": "7dee92f4f3",
        "server": "4850",
        "farm": 5,
        "title": "IMG_0030 2",
        "ispublic": 1,
        "isfriend": 0,
        "isfamily": 0
      },
      {
        "id": "31809122928",
        "owner": "157434800@N05",
        "secret": "6e362f2857",
        "server": "4830",
        "farm": 5,
        "title": "FB_IMG_1531043420178",
        "ispublic": 1,
        "isfriend": 0,
        "isfamily": 0
      },
      {
        "id": "45630910502",
        "owner": "157434800@N05",
        "secret": "36c134fab2",
        "server": "1948",
        "farm": 2,
        "title": "FB_IMG_1531043424457",
        "ispublic": 1,
        "isfriend": 0,
        "isfamily": 0
      },
      {
        "id": "45630909752",
        "owner": "157434800@N05",
        "secret": "2f54f75ce4",
        "server": "4865",
        "farm": 5,
        "title": "FB_IMG_1531043428827",
        "ispublic": 1,
        "isfriend": 0,
        "isfamily": 0
      },
      {
        "id": "44956610504",
        "owner": "96397872@N00",
        "secret": "705d90c9e1",
        "server": "1950",
        "farm": 2,
        "title": "DSC_2484",
        "ispublic": 1,
        "isfriend": 0,
        "isfamily": 0
      },
      {
        "id": "43863324650",
        "owner": "14471858@N00",
        "secret": "3e0e9e940a",
        "server": "1968",
        "farm": 2,
        "title": "cimg4181_15546912943_o",
        "ispublic": 1,
        "isfriend": 0,
        "isfamily": 0
      },
      {
        "id": "43863324120",
        "owner": "14471858@N00",
        "secret": "c00d333fc8",
        "server": "4807",
        "farm": 5,
        "title": "cimg4183_16165937302_o",
        "ispublic": 1,
        "isfriend": 0,
        "isfamily": 0
      },
      {
        "id": "43863319010",
        "owner": "14471858@N00",
        "secret": "96b25b8712",
        "server": "4833",
        "farm": 5,
        "title": "cimg4199_16164779601_o",
        "ispublic": 1,
        "isfriend": 0,
        "isfamily": 0
      },
      {
        "id": "31808963178",
        "owner": "61300408@N05",
        "secret": "395d4ea275",
        "server": "1951",
        "farm": 2,
        "title": "DSC_0083_DxO",
        "ispublic": 1,
        "isfriend": 0,
        "isfamily": 0
      },
      {
        "id": "44956586184",
        "owner": "14471858@N00",
        "secret": "44403a3719",
        "server": "1978",
        "farm": 2,
        "title": "cimg4217_15544325344_o",
        "ispublic": 1,
        "isfriend": 0,
        "isfamily": 0
      },
      {
        "id": "43863312190",
        "owner": "14471858@N00",
        "secret": "24e569a608",
        "server": "4821",
        "farm": 5,
        "title": "cimg4226_15546906733_o",
        "ispublic": 1,
        "isfriend": 0,
        "isfamily": 0
      },
      {
        "id": "43863268410",
        "owner": "14471858@N00",
        "secret": "97f922c463",
        "server": "4889",
        "farm": 5,
        "title": "cimg4211_15980619199_o",
        "ispublic": 1,
        "isfriend": 0,
        "isfamily": 0
      },
      {
        "id": "30740644127",
        "owner": "151187872@N05",
        "secret": "341cb46b81",
        "server": "4869",
        "farm": 5,
        "title": "DSC04708",
        "ispublic": 1,
        "isfriend": 0,
        "isfamily": 0
      },
      {
        "id": "43863196810",
        "owner": "151187872@N05",
        "secret": "ba48254651",
        "server": "4882",
        "farm": 5,
        "title": "DSC04818",
        "ispublic": 1,
        "isfriend": 0,
        "isfamily": 0
      },
      {
        "id": "31808857288",
        "owner": "151187872@N05",
        "secret": "d1c2756608",
        "server": "4862",
        "farm": 5,
        "title": "DSC04906",
        "ispublic": 1,
        "isfriend": 0,
        "isfamily": 0
      },
      {
        "id": "45630664752",
        "owner": "151187872@N05",
        "secret": "f76c36a745",
        "server": "4815",
        "farm": 5,
        "title": "DSC04916",
        "ispublic": 1,
        "isfriend": 0,
        "isfamily": 0
      },
      {
        "id": "44766890425",
        "owner": "14471858@N00",
        "secret": "a0daf45866",
        "server": "1935",
        "farm": 2,
        "title": "cimg1492_15546960243_o",
        "ispublic": 1,
        "isfriend": 0,
        "isfamily": 0
      }
    ]
  },
  "stat": "ok"
}
